"config"
{
	"preview_visible"		"0"
	"p_x"		"498"
	"p_y"		"332"
	"p_sx"		"442"
	"p_sy"		"385"
	"draw_datatypes"		"1"
	"draw_shadows"		"1"
	"draw_all_limits"		"1"
	"compile_preview"		"1"
	"enable_nodeview_tooltips"		"1"
	"compile_always_full"		"0"
	"compile_auto_publish_to_materials"		"1"
	"precache_auto_reload"		"1"
	"warn_unsaved_changes"		"1"
	"cedit_x"		"160"
	"cedit_y"		"90"
	"cedit_sx"		"960"
	"cedit_sy"		"540"
}
