///////////////////////////////////////////////////////////
// Tracker scheme resource file
//
// sections:
//		Colors			- all the colors used by the scheme
//		BaseSettings	- contains settings for app to use to draw controls
//		Fonts			- list of all the fonts used by app
//		Borders			- description of all the borders
//
// hit ctrl-alt-shift-R in the app to reload this file
//
///////////////////////////////////////////////////////////
Scheme
{
	//////////////////////// COLORS ///////////////////////////
	// color details
	// this is a list of all the colors used by the scheme
	Colors
	{
	}
	
	///////////////////// BASE SETTINGS ////////////////////////
	//
	// default settings for all panels
	// controls use these to determine their settings
	BaseSettings
	{
		"FgColor"			"255 106 0 150"
		"BgColor"			"0 0 0 0"
		
		"BrightFg"		"255 106 0 255"
		"DamagedBg"			"180 0 0 200"
		"DamagedFg"			"180 0 0 230"
		"BrightDamagedFg"		"255 0 0 255"

		// weapon selection colors
		"SelectionNumberFg"		"255 220 0 255"
		"SelectionTextFg"		"255 220 0 255"
		"SelectionEmptyBoxBg" 	"0 0 0 80"
		"SelectionBoxBg" 		"0 0 0 80"
		"SelectionSelectedBoxBg" "0 0 0 80"
		
		"ZoomReticleColor"	"255 220 0 88"

		// HL1-style HUD colors
		"Yellowish"			"255 106 0 255"
		"Normal"			"255 208 64 255"
		"Caution"			"255 48 0 255"
		"Reddish"			"255 16 16 255"
		"Greenish"			"0 160 0 255"

		// Top-left corner of the menu on the main screen
		"Main.Menu.X"		"72"
		"Main.Menu.Y"		"248"

		// Top-left corner of the "Half-Life 2" on the main screen
		"Main.Title1.X"		"72"
		"Main.Title1.Y"		"190"
		"Main.Title1.Color"	"255 255 255 255"

		// Blank space to leave beneath the menu on the main screen
		"Main.BottomBorder"	"32"
	}
	
	//////////////////////// FONTS /////////////////////////////
	//
	// describes all the fonts
	Fonts
	{
		// fonts are used in order that they are listed
		// fonts are used in order that they are listed
		"DebugFixed"
		{
			"1"
			{
				"name"		"Courier New"
				"tall"		"14"
				"weight"	"400"
				"antialias" "1"
				"range"		"0x0000 0x017F" //	Basic Latin, Latin-1 Supplement, Latin Extended-A
			}
		}
		// fonts are used in order that they are listed
		"DebugFixedSmall"
		{
			"1"
			{
				"name"		"Courier New"
				"tall"		"14"
				"weight"	"400"
				"antialias" "1"
				"range"		"0x0000 0x017F" //	Basic Latin, Latin-1 Supplement, Latin Extended-A
			}
		}
		// fonts listed later in the order will only be used if they fulfill a range not already filled
		// if a font fails to load then the subsequent fonts will replace
		Default
		{
			"1"
			{
				"name"		"Verdana"
				"tall"		"9"
				"weight"	"700"
				"antialias" "1"
				"yres"	"1 599"
				"range"		"0x0000 0x017F" //	Basic Latin, Latin-1 Supplement, Latin Extended-A
			}
			"2"
			{
				"name"		"Verdana"
				"tall"		"12"
				"weight"	"700"
				"antialias" "1"
				"yres"	"600 767"
				"range"		"0x0000 0x017F" //	Basic Latin, Latin-1 Supplement, Latin Extended-A
			}
			"3"
			{
				"name"		"Verdana"
				"tall"		"14"
				"weight"	"900"
				"antialias" "1"
				"yres"	"768 1023"
				"range"		"0x0000 0x017F" //	Basic Latin, Latin-1 Supplement, Latin Extended-A
			}
			"4"
			{
				"name"		"Verdana"
				"tall"		"20"
				"weight"	"900"
				"antialias" "1"
				"yres"	"1024 1199"
				"range"		"0x0000 0x017F" //	Basic Latin, Latin-1 Supplement, Latin Extended-A
			}
			"5"
			{
				"name"		"Verdana"
				"tall"		"24"
				"weight"	"900"
				"antialias" "1"
				"yres"	"1200 10000"
				"additive"	"1"
				"range"		"0x0000 0x017F" //	Basic Latin, Latin-1 Supplement, Latin Extended-A
			}
		}
		HudNumbers
		{
			"1"
			{
				"name"		"NixieOne"
				"tall"		"40"
				"weight"	"400"
				"antialias" "1"
				"additive"	"1"
				"range"		"0x0000 0x017F"
			}
			"2"
			{
				"name"		"NixieOne"
				"tall"		"40"
				"weight"	"1000"
				"antialias" "1"
				"additive"	"1"
				"range"		"0x0000 0x017F"
			}
		}
		HudNumbersGlow
		{
			"1"
			{
				"name"		"NixieOne"
				"tall"		"32"
				"weight"	"400"
				"antialias" "1"
				"additive"	"1"
				"range"		"0x0000 0x017F"
			}
			"2"
			{
				"name"		"NixieOne"
				"tall"		"32"
				"weight"	"1000"
				"antialias" "1"
				"additive"	"1"
				"range"		"0x0000 0x017F"
			}
		}
		HudNumbersSmall
		{
			"1"
			{
				"name"		"NixieOne"
				"tall"		"20"
				"weight"	"1000"
				"additive"	"1"
				"antialias" "1"
				"range"		"0x0000 0x017F"
			}
		}
		HudSelectionNumbers
		{
			"1"
			{
				"name"		"NixieOne"
				"tall"		"11"
				"weight"	"700"
				"antialias" "1"
				"additive"	"1"
				"range"		"0x0000 0x017F" //	Basic Latin, Latin-1 Supplement, Latin Extended-A
			}
		}
		HudSelectionText
		{
			"1"
			{
				"name"		"NixieOne"
				"tall"		"8"
				"weight"	"700"
				"antialias" "1"
				"yres"	"1 599"
				"range"		"0x0000 0x017F" //	Basic Latin, Latin-1 Supplement, Latin Extended-A
			}
			"2"
			{
				"name"		"NixieOne"
				"tall"		"10"
				"weight"	"700"
				"antialias" "1"
				"yres"	"600 767"
				"range"		"0x0000 0x017F" //	Basic Latin, Latin-1 Supplement, Latin Extended-A
			}
			"3"
			{
				"name"		"NixieOne"
				"tall"		"12"
				"weight"	"900"
				"antialias" "1"
				"yres"	"768 1023"
				"range"		"0x0000 0x017F" //	Basic Latin, Latin-1 Supplement, Latin Extended-A
			}
			"4"
			{
				"name"		"NixieOne"
				"tall"		"16"
				"weight"	"900"
				"antialias" "1"
				"yres"	"1024 1199"
				"range"		"0x0000 0x017F" //	Basic Latin, Latin-1 Supplement, Latin Extended-A
			}
			"5"
			{
				"name"		"NixieOne"
				"tall"		"17"
				"weight"	"1000"
				"antialias" "1"
				"yres"	"1200 10000"
				"range"		"0x0000 0x017F" //	Basic Latin, Latin-1 Supplement, Latin Extended-A
			}
		}
		BudgetLabel
		{
			"1"
			{
				"name"		"Courier New"
				"tall"		"14"
				"weight"	"400"
				"outline"	"1"
				"range"		"0x0000 0x017F" //	Basic Latin, Latin-1 Supplement, Latin Extended-A
			}
		}
		DebugOverlay
		{
			"1"
			{
				"name"		"Courier New"
				"tall"		"14"
				"weight"	"400"
				"outline"	"1"
				"range"		"0x0000 0x017F" //	Basic Latin, Latin-1 Supplement, Latin Extended-A
			}
		}
		"CloseCaption_Normal"
		{
			"1"
			{
				"name"		"Tahoma"
				"tall"		"16"
				"weight"	"500"
				"range"		"0x0000 0x017F" //	Basic Latin, Latin-1 Supplement, Latin Extended-A
			}
		}
		"CloseCaption_Italic"
		{
			"1"
			{
				"name"		"Tahoma"
				"tall"		"16"
				"weight"	"500"
				"italic"	"1"
				"range"		"0x0000 0x017F" //	Basic Latin, Latin-1 Supplement, Latin Extended-A
			}
		}
		"CloseCaption_Bold"
		{
			"1"
			{
				"name"		"Tahoma"
				"tall"		"16"
				"weight"	"900"
				"range"		"0x0000 0x017F" //	Basic Latin, Latin-1 Supplement, Latin Extended-A
			}
		}
		"CloseCaption_BoldItalic"
		{
			"1"
			{
				"name"		"Tahoma"
				"tall"		"16"
				"weight"	"900"
				"italic"	"1"
				"range"		"0x0000 0x017F" //	Basic Latin, Latin-1 Supplement, Latin Extended-A
			}
		}
		// this is the symbol font
		"Marlett"
		{
			"1"
			{
				"name"		"Marlett"
				"tall"		"14"
				"weight"	"0"
				"symbol"	"1"
				"range"		"0x0000 0x007F"	//	Basic Latin
			}
		}
		ClientTitleFont
		{
			"1"
			{
				"name"  "HalfLife2"
				"tall"  "50"
				"weight" "0"
				"additive" "0"
				"antialias" "1"
			}
		}

		CenterPrintText
		{
			"1"
			{
				"name"		"Trebuchet MS"
				"tall"		"16"
				"weight"	"900"
				"antialias" "1"
				"additive"	"1"
			}
		}
	}

	
	//////////////////////// CUSTOM FONT FILES /////////////////////////////
	//
	// specifies all the custom (non-system) font files that need to be loaded to service the above described fonts
	CustomFontFiles
	{
		"1"		"resource/HALFLIFE2.ttf"
		"2"		"resource/NixieOne.ttf"
	}

}
