


materialPath: C:\absynthe\revision2\game\qreflux\materials
Loading C:\absynthe\revision2\game\qreflux\maps\playground.vmf
Could not locate 'GameData' key in c:\absynthe\revision2\game\qreflux\gameinfo.txt
fixing up env_cubemap materials on brush sides...
0...1...2...3...4...5...6...7...8...9...100...1...2...3...4...5...6...7...8...9...10Processing areas...done (0)
Building Faces...done (0)
FixTjuncs...
PruneNodes...
WriteBSP...
done (0)
writing C:\absynthe\revision2\game\qreflux\maps\playground.prt...Building visibility clusters...
done (0)
Creating default LDR cubemaps for env_cubemap using skybox materials:
   skybox/sky_day01_01*.vmt
 ! Run buildcubemaps in the engine to get the correct cube maps.
Creating default HDR cubemaps for env_cubemap using skybox materials:
   skybox/sky_day01_01*.vmt
 ! Run buildcubemaps in the engine to get the correct cube maps.
Finding displacement neighbors...
Finding lightmap sample positions...
Displacement Alpha : 0...1...2...3...4...5...6...7...8...9...10
Building Physics collision data...
done (0) (2759 bytes)
Placing detail props : 0...1...2...3...4...5...6...7...8...9...10
Compacting texture/material tables...
Reduced 4 texinfos to 4
Reduced 2 texdatas to 2 (39 bytes to 39)
Writing C:\absynthe\revision2\game\qreflux\maps\playground.bsp
0 seconds elapsed



4 threads
reading c:\absynthe\revision2\game\qreflux\maps\playground.bsp
reading c:\absynthe\revision2\game\qreflux\maps\playground.prt
   8 portalclusters
  13 numportals
0...1...2...3...4...5...6...7...8...9...100...1...2...3...4...5...6...7...8...9...10Optimized: 0 visible clusters (0.00%)
Total clusters visible: 64
Average clusters visible: 8
Building PAS...
Average clusters audible: 8
visdatasize:84  compressed from 128
writing c:\absynthe\revision2\game\qreflux\maps\playground.bsp
0 seconds elapsed



Could not find lights.rad in lights.rad.
Trying VRAD BIN directory instead...
Warning: Couldn't open texlight file C:\absynthe\revision2\game\bin\lights.rad.
Loading c:\absynthe\revision2\game\qreflux\maps\playground.bsp
939 faces
27733 square feet [3993600.00 square inches]
0 Displacements
0 Square Feet [0.00 Square Inches]
939 patches before subdivision
101609 patches after subdivision
2 direct lights
0...1...2...3...4...5...6...7...8...9...100...1...2...3...4...5...6...7...8...9...10transfers 34942980, max 915
transfer lists: 266.6 megs
0...1...2...3...4...5...6...7...8...9...10	Bounce #1 added RGB(234093, 234093, 234093)
0...1...2...3...4...5...6...7...8...9...10	Bounce #2 added RGB(73479, 73479, 73479)
0...1...2...3...4...5...6...7...8...9...10	Bounce #3 added RGB(23881, 23881, 23881)
0...1...2...3...4...5...6...7...8...9...10	Bounce #4 added RGB(7823, 7823, 7823)
0...1...2...3...4...5...6...7...8...9...10	Bounce #5 added RGB(2582, 2582, 2582)
0...1...2...3...4...5...6...7...8...9...10	Bounce #6 added RGB(854, 854, 854)
0...1...2...3...4...5...6...7...8...9...10	Bounce #7 added RGB(283, 283, 283)
0...1...2...3...4...5...6...7...8...9...10	Bounce #8 added RGB(94, 94, 94)
0...1...2...3...4...5...6...7...8...9...10	Bounce #9 added RGB(31, 31, 31)
0...1...2...3...4...5...6...7...8...9...10	Bounce #10 added RGB(10, 10, 10)
0...1...2...3...4...5...6...7...8...9...10	Bounce #11 added RGB(3, 3, 3)
0...1...2...3...4...5...6...7...8...9...10	Bounce #12 added RGB(1, 1, 1)
0...1...2...3...4...5...6...7...8...9...10	Bounce #13 added RGB(0, 0, 0)
Build Patch/Sample Hash Table(s).....Done<0.1683 sec>
0...1...2...3...4...5...6...7...8...9...10FinalLightFace Done
0 of 0 (0% of) surface lights went in leaf ambient cubes.
0...1...2...3...4...5...6...7...8...9...10Writing leaf ambient...done
Ready to Finish

Object names       Objects/Maxobjs  Memory / Maxmem  Fullness 
------------       ---------------  ---------------  -------- 
models                   1/1024           48/49152    ( 0.1%) 
brushes                  7/8192           84/98304    ( 0.1%) 
brushsides              42/65536         336/524288   ( 0.1%) 
planes                  48/65536         960/1310720  ( 0.1%) 
vertexes              1054/65536       12648/786432   ( 1.6%) 
nodes                   33/65536        1056/2097152  ( 0.1%) 
texinfos                 4/12288         288/884736   ( 0.0%) 
texdata                  2/2048           64/65536    ( 0.1%) 
dispinfos                0/0               0/0        ( 0.0%) 
disp_verts               0/0               0/0        ( 0.0%) 
disp_tris                0/0               0/0        ( 0.0%) 
disp_lmsamples           0/0               0/0        ( 0.0%) 
faces                  939/65536       52584/3670016  ( 1.4%) 
hdr faces                0/65536           0/3670016  ( 0.0%) 
origfaces               11/65536         616/3670016  ( 0.0%) 
leaves                  35/65536        1120/2097152  ( 0.1%) 
leaffaces             1377/65536        2754/131072   ( 2.1%) 
leafbrushes             18/65536          36/131072   ( 0.0%) 
areas                    2/1024           16/8192     ( 0.2%) 
surfedges             4008/512000      16032/2048000  ( 0.8%) 
edges                 2015/256000       8060/1024000  ( 0.8%) 
LDR worldlights          2/8192          176/720896   ( 0.0%) 
HDR worldlights          0/8192            0/720896   ( 0.0%) 
leafwaterdata            0/32768           0/393216   ( 0.0%) 
waterstrips              7/32768          70/327680   ( 0.0%) 
waterverts               0/65536           0/786432   ( 0.0%) 
waterindices            84/65536         168/131072   ( 0.1%) 
cubemapsamples           0/1024            0/16384    ( 0.0%) 
overlays                 0/1024            0/360448   ( 0.0%) 
LDR lightdata         [variable]    12897868/0        ( 0.0%) 
HDR lightdata         [variable]           0/0        ( 0.0%) 
visdata               [variable]          84/16777216 ( 0.0%) 
entdata               [variable]        1832/393216   ( 0.5%) 
LDR ambient table       35/65536         140/262144   ( 0.1%) 
HDR ambient table       35/65536         140/262144   ( 0.1%) 
LDR leaf ambient       111/65536        3108/1835008  ( 0.2%) 
HDR leaf ambient        35/65536         980/1835008  ( 0.1%) 
occluders                0/0               0/0        ( 0.0%) 
occluder polygons        0/0               0/0        ( 0.0%) 
occluder vert ind        0/0               0/0        ( 0.0%) 
detail props          [variable]           1/12       ( 8.3%) 
static props          [variable]           1/12       ( 8.3%) 
pakfile               [variable]      105671/0        ( 0.0%) 
physics               [variable]        2759/4194304  ( 0.1%) 
physics terrain       [variable]           2/1048576  ( 0.0%) 

Level flags = 1

Total triangle count: 2086
Writing c:\absynthe\revision2\game\qreflux\maps\playground.bsp
49 seconds elapsed



Could not find lights.rad in lights.rad.
Trying VRAD BIN directory instead...
Warning: Couldn't open texlight file C:\absynthe\revision2\game\bin\lights.rad.
Loading c:\absynthe\revision2\game\qreflux\maps\playground.bsp
939 faces
27733 square feet [3993600.00 square inches]
0 Displacements
0 Square Feet [0.00 Square Inches]
939 patches before subdivision
101609 patches after subdivision
2 direct lights
0...1...2...3...4...5...6...7...8...9...100...1...2...3...4...5...6...7...8...9...10transfers 34942980, max 915
transfer lists: 266.6 megs
0...1...2...3...4...5...6...7...8...9...10	Bounce #1 added RGB(234093, 234093, 234093)
0...1...2...3...4...5...6...7...8...9...10	Bounce #2 added RGB(73479, 73479, 73479)
0...1...2...3...4...5...6...7...8...9...10	Bounce #3 added RGB(23881, 23881, 23881)
0...1...2...3...4...5...6...7...8...9...10	Bounce #4 added RGB(7823, 7823, 7823)
0...1...2...3...4...5...6...7...8...9...10	Bounce #5 added RGB(2582, 2582, 2582)
0...1...2...3...4...5...6...7...8...9...10	Bounce #6 added RGB(854, 854, 854)
0...1...2...3...4...5...6...7...8...9...10	Bounce #7 added RGB(283, 283, 283)
0...1...2...3...4...5...6...7...8...9...10	Bounce #8 added RGB(94, 94, 94)
0...1...2...3...4...5...6...7...8...9...10	Bounce #9 added RGB(31, 31, 31)
0...1...2...3...4...5...6...7...8...9...10	Bounce #10 added RGB(10, 10, 10)
0...1...2...3...4...5...6...7...8...9...10	Bounce #11 added RGB(3, 3, 3)
0...1...2...3...4...5...6...7...8...9...10	Bounce #12 added RGB(1, 1, 1)
0...1...2...3...4...5...6...7...8...9...10	Bounce #13 added RGB(0, 0, 0)
Build Patch/Sample Hash Table(s).....Done<0.0807 sec>
0...1...2...3...4...5...6...7...8...9...10FinalLightFace Done
0 of 0 (0% of) surface lights went in leaf ambient cubes.
0...1...2...3...4...5...6...7...8...9...10Writing leaf ambient...done
Ready to Finish

Object names       Objects/Maxobjs  Memory / Maxmem  Fullness 
------------       ---------------  ---------------  -------- 
models                   1/1024           48/49152    ( 0.1%) 
brushes                  7/8192           84/98304    ( 0.1%) 
brushsides              42/65536         336/524288   ( 0.1%) 
planes                  48/65536         960/1310720  ( 0.1%) 
vertexes              1054/65536       12648/786432   ( 1.6%) 
nodes                   33/65536        1056/2097152  ( 0.1%) 
texinfos                 4/12288         288/884736   ( 0.0%) 
texdata                  2/2048           64/65536    ( 0.1%) 
dispinfos                0/0               0/0        ( 0.0%) 
disp_verts               0/0               0/0        ( 0.0%) 
disp_tris                0/0               0/0        ( 0.0%) 
disp_lmsamples           0/0               0/0        ( 0.0%) 
faces                  939/65536       52584/3670016  ( 1.4%) 
hdr faces              939/65536       52584/3670016  ( 1.4%) 
origfaces               11/65536         616/3670016  ( 0.0%) 
leaves                  35/65536        1120/2097152  ( 0.1%) 
leaffaces             1377/65536        2754/131072   ( 2.1%) 
leafbrushes             18/65536          36/131072   ( 0.0%) 
areas                    2/1024           16/8192     ( 0.2%) 
surfedges             4008/512000      16032/2048000  ( 0.8%) 
edges                 2015/256000       8060/1024000  ( 0.8%) 
LDR worldlights          2/8192          176/720896   ( 0.0%) 
HDR worldlights          2/8192          176/720896   ( 0.0%) 
leafwaterdata            0/32768           0/393216   ( 0.0%) 
waterstrips              7/32768          70/327680   ( 0.0%) 
waterverts               0/65536           0/786432   ( 0.0%) 
waterindices            84/65536         168/131072   ( 0.1%) 
cubemapsamples           0/1024            0/16384    ( 0.0%) 
overlays                 0/1024            0/360448   ( 0.0%) 
LDR lightdata         [variable]    12897868/0        ( 0.0%) 
HDR lightdata         [variable]    12897868/0        ( 0.0%) 
visdata               [variable]          84/16777216 ( 0.0%) 
entdata               [variable]        1832/393216   ( 0.5%) 
LDR ambient table       35/65536         140/262144   ( 0.1%) 
HDR ambient table       35/65536         140/262144   ( 0.1%) 
LDR leaf ambient       111/65536        3108/1835008  ( 0.2%) 
HDR leaf ambient       111/65536        3108/1835008  ( 0.2%) 
occluders                0/0               0/0        ( 0.0%) 
occluder polygons        0/0               0/0        ( 0.0%) 
occluder vert ind        0/0               0/0        ( 0.0%) 
detail props          [variable]           1/12       ( 8.3%) 
static props          [variable]           1/12       ( 8.3%) 
pakfile               [variable]      105671/0        ( 0.0%) 
physics               [variable]        2759/4194304  ( 0.1%) 
physics terrain       [variable]           2/1048576  ( 0.0%) 

Level flags = 3

Total triangle count: 2086
Writing c:\absynthe\revision2\game\qreflux\maps\playground.bsp
48 seconds elapsed



materialPath: C:\absynthe\revision2\game\qreflux\materials
Loading C:\absynthe\revision2\game\qreflux\maps\playground.vmf
Could not locate 'GameData' key in c:\absynthe\revision2\game\qreflux\gameinfo.txt
fixing up env_cubemap materials on brush sides...
0...1...2...3...4...5...6...7...8...9...100...1...2...3...4...5...6...7...8...9...10Processing areas...done (0)
Building Faces...done (0)
FixTjuncs...
PruneNodes...
WriteBSP...
done (0)
writing C:\absynthe\revision2\game\qreflux\maps\playground.prt...Building visibility clusters...
done (0)
Creating default LDR cubemaps for env_cubemap using skybox materials:
   skybox/sky_day01_01*.vmt
 ! Run buildcubemaps in the engine to get the correct cube maps.
Creating default HDR cubemaps for env_cubemap using skybox materials:
   skybox/sky_day01_01*.vmt
 ! Run buildcubemaps in the engine to get the correct cube maps.
Finding displacement neighbors...
Finding lightmap sample positions...
Displacement Alpha : 0...1...2...3...4...5...6...7...8...9...10
Building Physics collision data...
done (0) (2759 bytes)
Placing detail props : 0...1...2...3...4...5...6...7...8...9...10
Compacting texture/material tables...
Reduced 4 texinfos to 4
Reduced 2 texdatas to 2 (39 bytes to 39)
Writing C:\absynthe\revision2\game\qreflux\maps\playground.bsp
0 seconds elapsed



4 threads
reading c:\absynthe\revision2\game\qreflux\maps\playground.bsp
reading c:\absynthe\revision2\game\qreflux\maps\playground.prt
   8 portalclusters
  13 numportals
0...1...2...3...4...5...6...7...8...9...100...1...2...3...4...5...6...7...8...9...10Optimized: 0 visible clusters (0.00%)
Total clusters visible: 64
Average clusters visible: 8
Building PAS...
Average clusters audible: 8
visdatasize:84  compressed from 128
writing c:\absynthe\revision2\game\qreflux\maps\playground.bsp
0 seconds elapsed



Could not find lights.rad in lights.rad.
Trying VRAD BIN directory instead...
Warning: Couldn't open texlight file C:\absynthe\revision2\game\bin\lights.rad.
Loading c:\absynthe\revision2\game\qreflux\maps\playground.bsp
939 faces
27733 square feet [3993600.00 square inches]
0 Displacements
0 Square Feet [0.00 Square Inches]
939 patches before subdivision
101609 patches after subdivision
unsupported light entity: "light_deferred_global"
0 direct lights
0...1...2...3...4...5...6...7...8...9...100...1...2...3...4...5...6...7...8...9...10transfers 34942980, max 915
transfer lists: 266.6 megs
0...1...2...3...4...5...6...7...8...9...10	Bounce #1 added RGB(0, 0, 0)
Build Patch/Sample Hash Table(s).....Done<0.1369 sec>
0...1...2...3...4...5...6...7...8...9...10FinalLightFace Done
0 of 0 (0% of) surface lights went in leaf ambient cubes.
0...1...2...3...4...5...6...7...8...9...10Writing leaf ambient...done
Ready to Finish

Object names       Objects/Maxobjs  Memory / Maxmem  Fullness 
------------       ---------------  ---------------  -------- 
models                   1/1024           48/49152    ( 0.1%) 
brushes                  7/8192           84/98304    ( 0.1%) 
brushsides              42/65536         336/524288   ( 0.1%) 
planes                  48/65536         960/1310720  ( 0.1%) 
vertexes              1054/65536       12648/786432   ( 1.6%) 
nodes                   33/65536        1056/2097152  ( 0.1%) 
texinfos                 4/12288         288/884736   ( 0.0%) 
texdata                  2/2048           64/65536    ( 0.1%) 
dispinfos                0/0               0/0        ( 0.0%) 
disp_verts               0/0               0/0        ( 0.0%) 
disp_tris                0/0               0/0        ( 0.0%) 
disp_lmsamples           0/0               0/0        ( 0.0%) 
faces                  939/65536       52584/3670016  ( 1.4%) 
hdr faces                0/65536           0/3670016  ( 0.0%) 
origfaces               11/65536         616/3670016  ( 0.0%) 
leaves                  35/65536        1120/2097152  ( 0.1%) 
leaffaces             1377/65536        2754/131072   ( 2.1%) 
leafbrushes             18/65536          36/131072   ( 0.0%) 
areas                    2/1024           16/8192     ( 0.2%) 
surfedges             4008/512000      16032/2048000  ( 0.8%) 
edges                 2015/256000       8060/1024000  ( 0.8%) 
LDR worldlights          0/8192            0/720896   ( 0.0%) 
HDR worldlights          0/8192            0/720896   ( 0.0%) 
leafwaterdata            0/32768           0/393216   ( 0.0%) 
waterstrips              7/32768          70/327680   ( 0.0%) 
waterverts               0/65536           0/786432   ( 0.0%) 
waterindices            84/65536         168/131072   ( 0.1%) 
cubemapsamples           0/1024            0/16384    ( 0.0%) 
overlays                 0/1024            0/360448   ( 0.0%) 
LDR lightdata         [variable]    12897868/0        ( 0.0%) 
HDR lightdata         [variable]           0/0        ( 0.0%) 
visdata               [variable]          84/16777216 ( 0.0%) 
entdata               [variable]        1772/393216   ( 0.5%) 
LDR ambient table       35/65536         140/262144   ( 0.1%) 
HDR ambient table       35/65536         140/262144   ( 0.1%) 
LDR leaf ambient         8/65536         224/1835008  ( 0.0%) 
HDR leaf ambient        35/65536         980/1835008  ( 0.1%) 
occluders                0/0               0/0        ( 0.0%) 
occluder polygons        0/0               0/0        ( 0.0%) 
occluder vert ind        0/0               0/0        ( 0.0%) 
detail props          [variable]           1/12       ( 8.3%) 
static props          [variable]           1/12       ( 8.3%) 
pakfile               [variable]      105671/0        ( 0.0%) 
physics               [variable]        2759/4194304  ( 0.1%) 
physics terrain       [variable]           2/1048576  ( 0.0%) 

Level flags = 1

Total triangle count: 2086
Writing c:\absynthe\revision2\game\qreflux\maps\playground.bsp
14 seconds elapsed



Could not find lights.rad in lights.rad.
Trying VRAD BIN directory instead...
Warning: Couldn't open texlight file C:\absynthe\revision2\game\bin\lights.rad.
Loading c:\absynthe\revision2\game\qreflux\maps\playground.bsp
939 faces
27733 square feet [3993600.00 square inches]
0 Displacements
0 Square Feet [0.00 Square Inches]
939 patches before subdivision
101609 patches after subdivision
unsupported light entity: "light_deferred_global"
0 direct lights
0...1...2...3...4...5...6...7...8...9...100...1...2...3...4...5...6...7...8...9...10transfers 34942980, max 915
transfer lists: 266.6 megs
0...1...2...3...4...5...6...7...8...9...10	Bounce #1 added RGB(0, 0, 0)
Build Patch/Sample Hash Table(s).....Done<0.1985 sec>
0...1...2...3...4...5...6...7...8...9...10FinalLightFace Done
0 of 0 (0% of) surface lights went in leaf ambient cubes.
0...1...2...3...4...5...6...7...8...9...10Writing leaf ambient...done
Ready to Finish

Object names       Objects/Maxobjs  Memory / Maxmem  Fullness 
------------       ---------------  ---------------  -------- 
models                   1/1024           48/49152    ( 0.1%) 
brushes                  7/8192           84/98304    ( 0.1%) 
brushsides              42/65536         336/524288   ( 0.1%) 
planes                  48/65536         960/1310720  ( 0.1%) 
vertexes              1054/65536       12648/786432   ( 1.6%) 
nodes                   33/65536        1056/2097152  ( 0.1%) 
texinfos                 4/12288         288/884736   ( 0.0%) 
texdata                  2/2048           64/65536    ( 0.1%) 
dispinfos                0/0               0/0        ( 0.0%) 
disp_verts               0/0               0/0        ( 0.0%) 
disp_tris                0/0               0/0        ( 0.0%) 
disp_lmsamples           0/0               0/0        ( 0.0%) 
faces                  939/65536       52584/3670016  ( 1.4%) 
hdr faces              939/65536       52584/3670016  ( 1.4%) 
origfaces               11/65536         616/3670016  ( 0.0%) 
leaves                  35/65536        1120/2097152  ( 0.1%) 
leaffaces             1377/65536        2754/131072   ( 2.1%) 
leafbrushes             18/65536          36/131072   ( 0.0%) 
areas                    2/1024           16/8192     ( 0.2%) 
surfedges             4008/512000      16032/2048000  ( 0.8%) 
edges                 2015/256000       8060/1024000  ( 0.8%) 
LDR worldlights          0/8192            0/720896   ( 0.0%) 
HDR worldlights          0/8192            0/720896   ( 0.0%) 
leafwaterdata            0/32768           0/393216   ( 0.0%) 
waterstrips              7/32768          70/327680   ( 0.0%) 
waterverts               0/65536           0/786432   ( 0.0%) 
waterindices            84/65536         168/131072   ( 0.1%) 
cubemapsamples           0/1024            0/16384    ( 0.0%) 
overlays                 0/1024            0/360448   ( 0.0%) 
LDR lightdata         [variable]    12897868/0        ( 0.0%) 
HDR lightdata         [variable]    12897868/0        ( 0.0%) 
visdata               [variable]          84/16777216 ( 0.0%) 
entdata               [variable]        1772/393216   ( 0.5%) 
LDR ambient table       35/65536         140/262144   ( 0.1%) 
HDR ambient table       35/65536         140/262144   ( 0.1%) 
LDR leaf ambient         8/65536         224/1835008  ( 0.0%) 
HDR leaf ambient         8/65536         224/1835008  ( 0.0%) 
occluders                0/0               0/0        ( 0.0%) 
occluder polygons        0/0               0/0        ( 0.0%) 
occluder vert ind        0/0               0/0        ( 0.0%) 
detail props          [variable]           1/12       ( 8.3%) 
static props          [variable]           1/12       ( 8.3%) 
pakfile               [variable]      105671/0        ( 0.0%) 
physics               [variable]        2759/4194304  ( 0.1%) 
physics terrain       [variable]           2/1048576  ( 0.0%) 

Level flags = 3

Total triangle count: 2086
Writing c:\absynthe\revision2\game\qreflux\maps\playground.bsp
21 seconds elapsed



materialPath: C:\absynthe\revision2\game\qreflux\materials
Loading C:\absynthe\revision2\game\qreflux\maps\playground.vmf
Could not locate 'GameData' key in c:\absynthe\revision2\game\qreflux\gameinfo.txt
fixing up env_cubemap materials on brush sides...
0...1...2...3...4...5...6...7...8...9...100...1...2...3...4...5...6...7...8...9...10Processing areas...done (0)
Building Faces...done (0)
FixTjuncs...
PruneNodes...
WriteBSP...
done (0)
writing C:\absynthe\revision2\game\qreflux\maps\playground.prt...Building visibility clusters...
done (0)
Creating default LDR cubemaps for env_cubemap using skybox materials:
   skybox/sky_day01_01*.vmt
 ! Run buildcubemaps in the engine to get the correct cube maps.
Creating default HDR cubemaps for env_cubemap using skybox materials:
   skybox/sky_day01_01*.vmt
 ! Run buildcubemaps in the engine to get the correct cube maps.
Finding displacement neighbors...
Finding lightmap sample positions...
Displacement Alpha : 0...1...2...3...4...5...6...7...8...9...10
Building Physics collision data...
done (0) (2738 bytes)
Placing detail props : 0...1...2...3...4...5...6...7...8...9...10
Compacting texture/material tables...
Reduced 3 texinfos to 3
Reduced 1 texdatas to 1 (21 bytes to 21)
Writing C:\absynthe\revision2\game\qreflux\maps\playground.bsp
0 seconds elapsed



materialPath: C:\absynthe\revision2\game\qreflux\materials
Loading C:\absynthe\revision2\game\qreflux\maps\playground.vmf
Could not locate 'GameData' key in c:\absynthe\revision2\game\qreflux\gameinfo.txt
fixing up env_cubemap materials on brush sides...
0...1...2...3...4...5...6...7...8...9...100...1...2...3...4...5...6...7...8...9...10Processing areas...done (0)
Building Faces...done (0)
FixTjuncs...
PruneNodes...
WriteBSP...
done (0)
writing C:\absynthe\revision2\game\qreflux\maps\playground.prt...Building visibility clusters...
done (0)
Creating default LDR cubemaps for env_cubemap using skybox materials:
   skybox/sky_day01_01*.vmt
 ! Run buildcubemaps in the engine to get the correct cube maps.
Creating default HDR cubemaps for env_cubemap using skybox materials:
   skybox/sky_day01_01*.vmt
 ! Run buildcubemaps in the engine to get the correct cube maps.
Finding displacement neighbors...
Finding lightmap sample positions...
Displacement Alpha : 0...1...2...3...4...5...6...7...8...9...10
Building Physics collision data...
done (0) (2738 bytes)
Placing detail props : 0...1...2...3...4...5...6...7...8...9...10
Compacting texture/material tables...
Reduced 3 texinfos to 3
Reduced 1 texdatas to 1 (21 bytes to 21)
Writing C:\absynthe\revision2\game\qreflux\maps\playground.bsp
1 second elapsed



materialPath: C:\absynthe\revision2\game\qreflux\materials
Loading C:\absynthe\revision2\game\qreflux\maps\playground.vmf
Could not locate 'GameData' key in c:\absynthe\revision2\game\qreflux\gameinfo.txt
fixing up env_cubemap materials on brush sides...
0...1...2...3...4...5...6...7...8...9...100...1...2...3...4...5...6...7...8...9...10Processing areas...done (0)
Building Faces...done (0)
FixTjuncs...
PruneNodes...
WriteBSP...
done (0)
writing C:\absynthe\revision2\game\qreflux\maps\playground.prt...Building visibility clusters...
done (1)
Creating default LDR cubemaps for env_cubemap using skybox materials:
   skybox/sky_day01_01*.vmt
 ! Run buildcubemaps in the engine to get the correct cube maps.
Creating default HDR cubemaps for env_cubemap using skybox materials:
   skybox/sky_day01_01*.vmt
 ! Run buildcubemaps in the engine to get the correct cube maps.
Finding displacement neighbors...
Finding lightmap sample positions...
Displacement Alpha : 0...1...2...3...4...5...6...7...8...9...10
Building Physics collision data...
done (0) (2738 bytes)
Placing detail props : 0...1...2...3...4...5...6...7...8...9...10
Compacting texture/material tables...
Reduced 3 texinfos to 3
Reduced 1 texdatas to 1 (21 bytes to 21)
Writing C:\absynthe\revision2\game\qreflux\maps\playground.bsp
1 second elapsed



materialPath: C:\absynthe\revision2\game\qreflux\materials
Loading C:\absynthe\revision2\game\qreflux\maps\playground.vmf
Could not locate 'GameData' key in c:\absynthe\revision2\game\qreflux\gameinfo.txt
fixing up env_cubemap materials on brush sides...
0...1...2...3...4...5...6...7...8...9...100...1...2...3...4...5...6...7...8...9...10Processing areas...done (0)
Building Faces...done (0)
FixTjuncs...
PruneNodes...
WriteBSP...
done (0)
writing C:\absynthe\revision2\game\qreflux\maps\playground.prt...Building visibility clusters...
done (0)
Creating default LDR cubemaps for env_cubemap using skybox materials:
   skybox/sky_day01_01*.vmt
 ! Run buildcubemaps in the engine to get the correct cube maps.
Creating default HDR cubemaps for env_cubemap using skybox materials:
   skybox/sky_day01_01*.vmt
 ! Run buildcubemaps in the engine to get the correct cube maps.
Finding displacement neighbors...
Finding lightmap sample positions...
Displacement Alpha : 0...1...2...3...4...5...6...7...8...9...10
Building Physics collision data...
done (0) (2738 bytes)
Placing detail props : 0...1...2...3...4...5...6...7...8...9...10
Compacting texture/material tables...
Reduced 3 texinfos to 3
Reduced 1 texdatas to 1 (21 bytes to 21)
Writing C:\absynthe\revision2\game\qreflux\maps\playground.bsp
0 seconds elapsed



materialPath: C:\absynthe\revision2\game\qreflux\materials
Loading C:\absynthe\revision2\game\qreflux\maps\playground.vmf
Could not locate 'GameData' key in c:\absynthe\revision2\game\qreflux\gameinfo.txt
fixing up env_cubemap materials on brush sides...
0...1...2...3...4...5...6...7...8...9...100...1...2...3...4...5...6...7...8...9...10Processing areas...done (0)
Building Faces...done (0)
FixTjuncs...
PruneNodes...
WriteBSP...
done (0)
writing C:\absynthe\revision2\game\qreflux\maps\playground.prt...Building visibility clusters...
done (0)
Creating default LDR cubemaps for env_cubemap using skybox materials:
   skybox/sky_day01_01*.vmt
 ! Run buildcubemaps in the engine to get the correct cube maps.
Creating default HDR cubemaps for env_cubemap using skybox materials:
   skybox/sky_day01_01*.vmt
 ! Run buildcubemaps in the engine to get the correct cube maps.
Finding displacement neighbors...
Finding lightmap sample positions...
Displacement Alpha : 0...1...2...3...4...5...6...7...8...9...10
Building Physics collision data...
done (0) (2738 bytes)
Placing detail props : 0...1...2...3...4...5...6...7...8...9...10
Compacting texture/material tables...
Reduced 3 texinfos to 3
Reduced 1 texdatas to 1 (21 bytes to 21)
Writing C:\absynthe\revision2\game\qreflux\maps\playground.bsp
1 second elapsed



materialPath: C:\absynthe\revision2\game\qreflux\materials
Loading C:\absynthe\revision2\game\qreflux\maps\playground.vmf
Could not locate 'GameData' key in c:\absynthe\revision2\game\qreflux\gameinfo.txt
fixing up env_cubemap materials on brush sides...
0...1...2...3...4...5...6...7...8...9...100...1...2...3...4...5...6...7...8...9...10Processing areas...done (0)
Building Faces...done (0)
FixTjuncs...
PruneNodes...
WriteBSP...
done (0)
writing C:\absynthe\revision2\game\qreflux\maps\playground.prt...Building visibility clusters...
done (0)
Creating default LDR cubemaps for env_cubemap using skybox materials:
   skybox/sky_day01_01*.vmt
 ! Run buildcubemaps in the engine to get the correct cube maps.
Creating default HDR cubemaps for env_cubemap using skybox materials:
   skybox/sky_day01_01*.vmt
 ! Run buildcubemaps in the engine to get the correct cube maps.
Finding displacement neighbors...
Finding lightmap sample positions...
Displacement Alpha : 0...1...2...3...4...5...6...7...8...9...10
Building Physics collision data...
done (0) (2738 bytes)
Placing detail props : 0...1...2...3...4...5...6...7...8...9...10
Compacting texture/material tables...
Reduced 3 texinfos to 3
Reduced 1 texdatas to 1 (21 bytes to 21)
Writing C:\absynthe\revision2\game\qreflux\maps\playground.bsp
1 second elapsed
